{
  "page": 1,
  "per_page": 15,
  "photos": [
    {
      "id": 775201,
      "width": 1999,
      "height": 2998,
      "url": "https://www.pexels.com/photo/black-hanging-bridge-surrounded-by-green-forest-trees-775201/",
      "photographer": "Kaique Rocha",
      "photographer_url": "https://www.pexels.com/@hikaique",
      "photographer_id": 4672,
      "avg_color": "#3C423D",
      "src": {
        "original": "https://images.pexels.com/photos/775201/pexels-photo-775201.jpeg",
        "large2x": "https://images.pexels.com/photos/775201/pexels-photo-775201.jpeg?auto=compress&cs=tinysrgb&dpr=2&h=650&w=940",
        "large": "https://images.pexels.com/photos/775201/pexels-photo-775201.jpeg?auto=compress&cs=tinysrgb&h=650&w=940",
        "medium": "https://images.pexels.com/photos/775201/pexels-photo-775201.jpeg?auto=compress&cs=tinysrgb&h=350",
        "small": "https://images.pexels.com/photos/775201/pexels-photo-775201.jpeg?auto=compress&cs=tinysrgb&h=130",
        "portrait": "https://images.pexels.com/photos/775201/pexels-photo-775201.jpeg?auto=compress&cs=tinysrgb&fit=crop&h=1200&w=800",
        "landscape": "https://images.pexels.com/photos/775201/pexels-photo-775201.jpeg?auto=compress&cs=tinysrgb&fit=crop&h=627&w=1200",
        "tiny": "https://images.pexels.com/photos/775201/pexels-photo-775201.jpeg?auto=compress&cs=tinysrgb&dpr=1&fit=crop&h=200&w=280"
      },
      "liked": false,
      "alt": "Black Hanging Bridge Surrounded by Green Forest Trees"
    },
    {
      "id": 1671325,
      "width": 3312,
      "height": 4416,
      "url": "https://www.pexels.com/photo/trees-on-a-dark-forest-1671325/",
      "photographer": "Francesco Ungaro",
      "photographer_url": "https://www.pexels.com/@francesco-ungaro",
      "photographer_id": 21273,
      "avg_color": "#1A1E1B",
      "src": {
        "original": "https://images.pexels.com/photos/1671325/pexels-photo-1671325.jpeg",
        "large2x": "https://images.pexels.com/photos/1671325/pexels-photo-1671325.jpeg?auto=compress&cs=tinysrgb&dpr=2&h=650&w=940",
        "large": "https://images.pexels.com/photos/1671325/pexels-photo-1671325.jpeg?auto=compress&cs=tinysrgb&h=650&w=940",
        "medium": "https://images.pexels.com/photos/1671325/pexels-photo-1671325.jpeg?auto=compress&cs=tinysrgb&h=350",
        "small": "https://images.pexels.com/photos/1671325/pexels-photo-1671325.jpeg?auto=compress&cs=tinysrgb&h=130",
        "portrait": "https://images.pexels.com/photos/1671325/pexels-photo-1671325.jpeg?auto=compress&cs=tinysrgb&fit=crop&h=1200&w=800",
        "landscape": "https://images.pexels.com/photos/1671325/pexels-photo-1671325.jpeg?auto=compress&cs=tinysrgb&fit=crop&h=627&w=1200",
        "tiny": "https://images.pexels.com/photos/1671325/pexels-photo-1671325.jpeg?auto=compress&cs=tinysrgb&dpr=1&fit=crop&h=200&w=280"
      },
      "liked": false,
      "alt": "Trees on a Dark Forest "
    },
    {
      "id": 38136,
      "width": 5760,
      "height": 3840,
      "url": "https://www.pexels.com/photo/green-leafed-tree-38136/",
      "photographer": "veeterzy",
      "photographer_url": "https://www.pexels.com/@veeterzy",
      "photographer_id": 5502,
      "avg_color": "#454426",
      "src": {
        "original": "https://images.pexels.com/photos/38136/pexels-photo-38136.jpeg",
        "large2x": "https://images.pexels.com/photos/38136/pexels-photo-38136.jpeg?auto=compress&cs=tinysrgb&dpr=2&h=650&w=940",
        "large": "https://images.pexels.com/photos/38136/pexels-photo-38136.jpeg?auto=compress&cs=tinysrgb&h=650&w=940",
        "medium": "https://images.pexels.com/photos/38136/pexels-photo-38136.jpeg?auto=compress&cs=tinysrgb&h=350",
        "small": "https://images.pexels.com/photos/38136/pexels-photo-38136.jpeg?auto=compress&cs=tinysrgb&h=130",
        "portrait": "https://images.pexels.com/photos/38136/pexels-photo-38136.jpeg?auto=compress&cs=tinysrgb&fit=crop&h=1200&w=800",
        "landscape": "https://images.pexels.com/photos/38136/pexels-photo-38136.jpeg?auto=compress&cs=tinysrgb&fit=crop&h=627&w=1200",
        "tiny": "https://images.pexels.com/photos/38136/pexels-photo-38136.jpeg?auto=compress&cs=tinysrgb&dpr=1&fit=crop&h=200&w=280"
      },
      "liked": false,
      "alt": "Green Leafed Tree"
    },
    {
      "id": 142497,
      "width": 3632,
      "height": 2417,
      "url": "https://www.pexels.com/photo/green-tree-near-green-plants-142497/",
      "photographer": "mali maeder",
      "photographer_url": "https://www.pexels.com/@mali",
      "photographer_id": 7311,
      "avg_color": "#566B35",
      "src": {
        "original": "https://images.pexels.com/photos/142497/pexels-photo-142497.jpeg",
        "large2x": "https://images.pexels.com/photos/142497/pexels-photo-142497.jpeg?auto=compress&cs=tinysrgb&dpr=2&h=650&w=940",
        "large": "https://images.pexels.com/photos/142497/pexels-photo-142497.jpeg?auto=compress&cs=tinysrgb&h=650&w=940",
        "medium": "https://images.pexels.com/photos/142497/pexels-photo-142497.jpeg?auto=compress&cs=tinysrgb&h=350",
        "small": "https://images.pexels.com/photos/142497/pexels-photo-142497.jpeg?auto=compress&cs=tinysrgb&h=130",
        "portrait": "https://images.pexels.com/photos/142497/pexels-photo-142497.jpeg?auto=compress&cs=tinysrgb&fit=crop&h=1200&w=800",
        "landscape": "https://images.pexels.com/photos/142497/pexels-photo-142497.jpeg?auto=compress&cs=tinysrgb&fit=crop&h=627&w=1200",
        "tiny": "https://images.pexels.com/photos/142497/pexels-photo-142497.jpeg?auto=compress&cs=tinysrgb&dpr=1&fit=crop&h=200&w=280"
      },
      "liked": false,
      "alt": "Green Tree Near Green Plants"
    },
    {
      "id": 1179229,
      "width": 4000,
      "height": 6000,
      "url": "https://www.pexels.com/photo/green-pine-trees-1179229/",
      "photographer": "Matthew Montrone",
      "photographer_url": "https://www.pexels.com/@matthew-montrone-230847",
      "photographer_id": 230847,
      "avg_color": "#595C32",
      "src": {
        "original": "https://images.pexels.com/photos/1179229/pexels-photo-1179229.jpeg",
        "large2x": "https://images.pexels.com/photos/1179229/pexels-photo-1179229.jpeg?auto=compress&cs=tinysrgb&dpr=2&h=650&w=940",
        "large": "https://images.pexels.com/photos/1179229/pexels-photo-1179229.jpeg?auto=compress&cs=tinysrgb&h=650&w=940",
        "medium": "https://images.pexels.com/photos/1179229/pexels-photo-1179229.jpeg?auto=compress&cs=tinysrgb&h=350",
        "small": "https://images.pexels.com/photos/1179229/pexels-photo-1179229.jpeg?auto=compress&cs=tinysrgb&h=130",
        "portrait": "https://images.pexels.com/photos/1179229/pexels-photo-1179229.jpeg?auto=compress&cs=tinysrgb&fit=crop&h=1200&w=800",
        "landscape": "https://images.pexels.com/photos/1179229/pexels-photo-1179229.jpeg?auto=compress&cs=tinysrgb&fit=crop&h=627&w=1200",
        "tiny": "https://images.pexels.com/photos/1179229/pexels-photo-1179229.jpeg?auto=compress&cs=tinysrgb&dpr=1&fit=crop&h=200&w=280"
      },
      "liked": false,
      "alt": "Green Pine Trees"
    },
    {
      "id": 418831,
      "width": 6000,
      "height": 4000,
      "url": "https://www.pexels.com/photo/green-grass-on-forest-418831/",
      "photographer": "Rudolf Jakkel",
      "photographer_url": "https://www.pexels.com/@jakkel",
      "photographer_id": 19456,
      "avg_color": "#565C4F",
      "src": {
        "original": "https://images.pexels.com/photos/418831/pexels-photo-418831.jpeg",
        "large2x": "https://images.pexels.com/photos/418831/pexels-photo-418831.jpeg?auto=compress&cs=tinysrgb&dpr=2&h=650&w=940",
        "large": "https://images.pexels.com/photos/418831/pexels-photo-418831.jpeg?auto=compress&cs=tinysrgb&h=650&w=940",
        "medium": "https://images.pexels.com/photos/418831/pexels-photo-418831.jpeg?auto=compress&cs=tinysrgb&h=350",
        "small": "https://images.pexels.com/photos/418831/pexels-photo-418831.jpeg?auto=compress&cs=tinysrgb&h=130",
        "portrait": "https://images.pexels.com/photos/418831/pexels-photo-418831.jpeg?auto=compress&cs=tinysrgb&fit=crop&h=1200&w=800",
        "landscape": "https://images.pexels.com/photos/418831/pexels-photo-418831.jpeg?auto=compress&cs=tinysrgb&fit=crop&h=627&w=1200",
        "tiny": "https://images.pexels.com/photos/418831/pexels-photo-418831.jpeg?auto=compress&cs=tinysrgb&dpr=1&fit=crop&h=200&w=280"
      },
      "liked": false,
      "alt": "Green Grass on Forest"
    },
    {
      "id": 9754,
      "width": 1920,
      "height": 1200,
      "url": "https://www.pexels.com/photo/aerial-photography-of-pine-trees-on-the-mountain-9754/",
      "photographer": "Creative Vix",
      "photographer_url": "https://www.pexels.com/@creative-vix",
      "photographer_id": 2674,
      "avg_color": "#768083",
      "src": {
        "original": "https://images.pexels.com/photos/9754/mountains-clouds-forest-fog.jpg",
        "large2x": "https://images.pexels.com/photos/9754/mountains-clouds-forest-fog.jpg?auto=compress&cs=tinysrgb&dpr=2&h=650&w=940",
        "large": "https://images.pexels.com/photos/9754/mountains-clouds-forest-fog.jpg?auto=compress&cs=tinysrgb&h=650&w=940",
        "medium": "https://images.pexels.com/photos/9754/mountains-clouds-forest-fog.jpg?auto=compress&cs=tinysrgb&h=350",
        "small": "https://images.pexels.com/photos/9754/mountains-clouds-forest-fog.jpg?auto=compress&cs=tinysrgb&h=130",
        "portrait": "https://images.pexels.com/photos/9754/mountains-clouds-forest-fog.jpg?auto=compress&cs=tinysrgb&fit=crop&h=1200&w=800",
        "landscape": "https://images.pexels.com/photos/9754/mountains-clouds-forest-fog.jpg?auto=compress&cs=tinysrgb&fit=crop&h=627&w=1200",
        "tiny": "https://images.pexels.com/photos/9754/mountains-clouds-forest-fog.jpg?auto=compress&cs=tinysrgb&dpr=1&fit=crop&h=200&w=280"
      },
      "liked": false,
      "alt": "Aerial Photography of Pine Trees on the Mountain"
    },
    {
      "id": 957024,
      "width": 5979,
      "height": 3986,
      "url": "https://www.pexels.com/photo/worms-eyeview-of-green-trees-957024/",
      "photographer": "Felix Mittermeier",
      "photographer_url": "https://www.pexels.com/@felixmittermeier",
      "photographer_id": 344572,
      "avg_color": "#828E35",
      "src": {
        "original": "https://images.pexels.com/photos/957024/forest-trees-perspective-bright-957024.jpeg",
        "large2x": "https://images.pexels.com/photos/957024/forest-trees-perspective-bright-957024.jpeg?auto=compress&cs=tinysrgb&dpr=2&h=650&w=940",
        "large": "https://images.pexels.com/photos/957024/forest-trees-perspective-bright-957024.jpeg?auto=compress&cs=tinysrgb&h=650&w=940",
        "medium": "https://images.pexels.com/photos/957024/forest-trees-perspective-bright-957024.jpeg?auto=compress&cs=tinysrgb&h=350",
        "small": "https://images.pexels.com/photos/957024/forest-trees-perspective-bright-957024.jpeg?auto=compress&cs=tinysrgb&h=130",
        "portrait": "https://images.pexels.com/photos/957024/forest-trees-perspective-bright-957024.jpeg?auto=compress&cs=tinysrgb&fit=crop&h=1200&w=800",
        "landscape": "https://images.pexels.com/photos/957024/forest-trees-perspective-bright-957024.jpeg?auto=compress&cs=tinysrgb&fit=crop&h=627&w=1200",
        "tiny": "https://images.pexels.com/photos/957024/forest-trees-perspective-bright-957024.jpeg?auto=compress&cs=tinysrgb&dpr=1&fit=crop&h=200&w=280"
      },
      "liked": false,
      "alt": "Worms Eyeview of Green Trees"
    },
    {
      "id": 338936,
      "width": 5248,
      "height": 3048,
      "url": "https://www.pexels.com/photo/green-leafed-tree-338936/",
      "photographer": "Nejc Košir",
      "photographer_url": "https://www.pexels.com/@nejc-kosir-108379",
      "photographer_id": 108379,
      "avg_color": "#544A20",
      "src": {
        "original": "https://images.pexels.com/photos/338936/pexels-photo-338936.jpeg",
        "large2x": "https://images.pexels.com/photos/338936/pexels-photo-338936.jpeg?auto=compress&cs=tinysrgb&dpr=2&h=650&w=940",
        "large": "https://images.pexels.com/photos/338936/pexels-photo-338936.jpeg?auto=compress&cs=tinysrgb&h=650&w=940",
        "medium": "https://images.pexels.com/photos/338936/pexels-photo-338936.jpeg?auto=compress&cs=tinysrgb&h=350",
        "small": "https://images.pexels.com/photos/338936/pexels-photo-338936.jpeg?auto=compress&cs=tinysrgb&h=130",
        "portrait": "https://images.pexels.com/photos/338936/pexels-photo-338936.jpeg?auto=compress&cs=tinysrgb&fit=crop&h=1200&w=800",
        "landscape": "https://images.pexels.com/photos/338936/pexels-photo-338936.jpeg?auto=compress&cs=tinysrgb&fit=crop&h=627&w=1200",
        "tiny": "https://images.pexels.com/photos/338936/pexels-photo-338936.jpeg?auto=compress&cs=tinysrgb&dpr=1&fit=crop&h=200&w=280"
      },
      "liked": false,
      "alt": "Green Leafed Tree"
    },
    {
      "id": 1423600,
      "width": 6000,
      "height": 4000,
      "url": "https://www.pexels.com/photo/forest-covered-in-white-fog-1423600/",
      "photographer": "Johannes Plenio",
      "photographer_url": "https://www.pexels.com/@jplenio",
      "photographer_id": 424445,
      "avg_color": "#99A68F",
      "src": {
        "original": "https://images.pexels.com/photos/1423600/pexels-photo-1423600.jpeg",
        "large2x": "https://images.pexels.com/photos/1423600/pexels-photo-1423600.jpeg?auto=compress&cs=tinysrgb&dpr=2&h=650&w=940",
        "large": "https://images.pexels.com/photos/1423600/pexels-photo-1423600.jpeg?auto=compress&cs=tinysrgb&h=650&w=940",
        "medium": "https://images.pexels.com/photos/1423600/pexels-photo-1423600.jpeg?auto=compress&cs=tinysrgb&h=350",
        "small": "https://images.pexels.com/photos/1423600/pexels-photo-1423600.jpeg?auto=compress&cs=tinysrgb&h=130",
        "portrait": "https://images.pexels.com/photos/1423600/pexels-photo-1423600.jpeg?auto=compress&cs=tinysrgb&fit=crop&h=1200&w=800",
        "landscape": "https://images.pexels.com/photos/1423600/pexels-photo-1423600.jpeg?auto=compress&cs=tinysrgb&fit=crop&h=627&w=1200",
        "tiny": "https://images.pexels.com/photos/1423600/pexels-photo-1423600.jpeg?auto=compress&cs=tinysrgb&dpr=1&fit=crop&h=200&w=280"
      },
      "liked": false,
      "alt": "Forest Covered in White Fog"
    },
    {
      "id": 167698,
      "width": 6000,
      "height": 4000,
      "url": "https://www.pexels.com/photo/green-leaf-trees-on-forest-167698/",
      "photographer": "Lum3n",
      "photographer_url": "https://www.pexels.com/@lum3n-44775",
      "photographer_id": 44775,
      "avg_color": "#4C4635",
      "src": {
        "original": "https://images.pexels.com/photos/167698/pexels-photo-167698.jpeg",
        "large2x": "https://images.pexels.com/photos/167698/pexels-photo-167698.jpeg?auto=compress&cs=tinysrgb&dpr=2&h=650&w=940",
        "large": "https://images.pexels.com/photos/167698/pexels-photo-167698.jpeg?auto=compress&cs=tinysrgb&h=650&w=940",
        "medium": "https://images.pexels.com/photos/167698/pexels-photo-167698.jpeg?auto=compress&cs=tinysrgb&h=350",
        "small": "https://images.pexels.com/photos/167698/pexels-photo-167698.jpeg?auto=compress&cs=tinysrgb&h=130",
        "portrait": "https://images.pexels.com/photos/167698/pexels-photo-167698.jpeg?auto=compress&cs=tinysrgb&fit=crop&h=1200&w=800",
        "landscape": "https://images.pexels.com/photos/167698/pexels-photo-167698.jpeg?auto=compress&cs=tinysrgb&fit=crop&h=627&w=1200",
        "tiny": "https://images.pexels.com/photos/167698/pexels-photo-167698.jpeg?auto=compress&cs=tinysrgb&dpr=1&fit=crop&h=200&w=280"
      },
      "liked": false,
      "alt": "Green Leaf Trees on Forest"
    },
    {
      "id": 113338,
      "width": 5760,
      "height": 3840,
      "url": "https://www.pexels.com/photo/bird-s-eye-view-nature-forest-trees-113338/",
      "photographer": "Markus Spiske",
      "photographer_url": "https://www.pexels.com/@markusspiske",
      "photographer_id": 19851,
      "avg_color": "#545E5A",
      "src": {
        "original": "https://images.pexels.com/photos/113338/pexels-photo-113338.jpeg",
        "large2x": "https://images.pexels.com/photos/113338/pexels-photo-113338.jpeg?auto=compress&cs=tinysrgb&dpr=2&h=650&w=940",
        "large": "https://images.pexels.com/photos/113338/pexels-photo-113338.jpeg?auto=compress&cs=tinysrgb&h=650&w=940",
        "medium": "https://images.pexels.com/photos/113338/pexels-photo-113338.jpeg?auto=compress&cs=tinysrgb&h=350",
        "small": "https://images.pexels.com/photos/113338/pexels-photo-113338.jpeg?auto=compress&cs=tinysrgb&h=130",
        "portrait": "https://images.pexels.com/photos/113338/pexels-photo-113338.jpeg?auto=compress&cs=tinysrgb&fit=crop&h=1200&w=800",
        "landscape": "https://images.pexels.com/photos/113338/pexels-photo-113338.jpeg?auto=compress&cs=tinysrgb&fit=crop&h=627&w=1200",
        "tiny": "https://images.pexels.com/photos/113338/pexels-photo-113338.jpeg?auto=compress&cs=tinysrgb&dpr=1&fit=crop&h=200&w=280"
      },
      "liked": false,
      "alt": "Free stock photo of bird s eye view, forest, green"
    },
    {
      "id": 70365,
      "width": 1350,
      "height": 1800,
      "url": "https://www.pexels.com/photo/tree-with-brunch-and-green-leaves-during-sunset-70365/",
      "photographer": "Pixabay",
      "photographer_url": "https://www.pexels.com/@pixabay",
      "photographer_id": 2659,
      "avg_color": "#49583A",
      "src": {
        "original": "https://images.pexels.com/photos/70365/forest-sunbeams-trees-sunlight-70365.jpeg",
        "large2x": "https://images.pexels.com/photos/70365/forest-sunbeams-trees-sunlight-70365.jpeg?auto=compress&cs=tinysrgb&dpr=2&h=650&w=940",
        "large": "https://images.pexels.com/photos/70365/forest-sunbeams-trees-sunlight-70365.jpeg?auto=compress&cs=tinysrgb&h=650&w=940",
        "medium": "https://images.pexels.com/photos/70365/forest-sunbeams-trees-sunlight-70365.jpeg?auto=compress&cs=tinysrgb&h=350",
        "small": "https://images.pexels.com/photos/70365/forest-sunbeams-trees-sunlight-70365.jpeg?auto=compress&cs=tinysrgb&h=130",
        "portrait": "https://images.pexels.com/photos/70365/forest-sunbeams-trees-sunlight-70365.jpeg?auto=compress&cs=tinysrgb&fit=crop&h=1200&w=800",
        "landscape": "https://images.pexels.com/photos/70365/forest-sunbeams-trees-sunlight-70365.jpeg?auto=compress&cs=tinysrgb&fit=crop&h=627&w=1200",
        "tiny": "https://images.pexels.com/photos/70365/forest-sunbeams-trees-sunlight-70365.jpeg?auto=compress&cs=tinysrgb&dpr=1&fit=crop&h=200&w=280"
      },
      "liked": false,
      "alt": "Tree With Brunch and Green Leaves during Sunset"
    },
    {
      "id": 33109,
      "width": 3456,
      "height": 2304,
      "url": "https://www.pexels.com/photo/red-leaf-trees-near-the-road-33109/",
      "photographer": "Pixabay",
      "photographer_url": "https://www.pexels.com/@pixabay",
      "photographer_id": 2659,
      "avg_color": "#924B26",
      "src": {
        "original": "https://images.pexels.com/photos/33109/fall-autumn-red-season.jpg",
        "large2x": "https://images.pexels.com/photos/33109/fall-autumn-red-season.jpg?auto=compress&cs=tinysrgb&dpr=2&h=650&w=940",
        "large": "https://images.pexels.com/photos/33109/fall-autumn-red-season.jpg?auto=compress&cs=tinysrgb&h=650&w=940",
        "medium": "https://images.pexels.com/photos/33109/fall-autumn-red-season.jpg?auto=compress&cs=tinysrgb&h=350",
        "small": "https://images.pexels.com/photos/33109/fall-autumn-red-season.jpg?auto=compress&cs=tinysrgb&h=130",
        "portrait": "https://images.pexels.com/photos/33109/fall-autumn-red-season.jpg?auto=compress&cs=tinysrgb&fit=crop&h=1200&w=800",
        "landscape": "https://images.pexels.com/photos/33109/fall-autumn-red-season.jpg?auto=compress&cs=tinysrgb&fit=crop&h=627&w=1200",
        "tiny": "https://images.pexels.com/photos/33109/fall-autumn-red-season.jpg?auto=compress&cs=tinysrgb&dpr=1&fit=crop&h=200&w=280"
      },
      "liked": false,
      "alt": "Red Leaf Trees Near the Road"
    },
    {
      "id": 1173777,
      "width": 1580,
      "height": 2809,
      "url": "https://www.pexels.com/photo/aerial-view-of-road-in-the-middle-of-trees-1173777/",
      "photographer": "Deva Darshan",
      "photographer_url": "https://www.pexels.com/@darshan394",
      "photographer_id": 325118,
      "avg_color": "#294F45",
      "src": {
        "original": "https://images.pexels.com/photos/1173777/pexels-photo-1173777.jpeg",
        "large2x": "https://images.pexels.com/photos/1173777/pexels-photo-1173777.jpeg?auto=compress&cs=tinysrgb&dpr=2&h=650&w=940",
        "large": "https://images.pexels.com/photos/1173777/pexels-photo-1173777.jpeg?auto=compress&cs=tinysrgb&h=650&w=940",
        "medium": "https://images.pexels.com/photos/1173777/pexels-photo-1173777.jpeg?auto=compress&cs=tinysrgb&h=350",
        "small": "https://images.pexels.com/photos/1173777/pexels-photo-1173777.jpeg?auto=compress&cs=tinysrgb&h=130",
        "portrait": "https://images.pexels.com/photos/1173777/pexels-photo-1173777.jpeg?auto=compress&cs=tinysrgb&fit=crop&h=1200&w=800",
        "landscape": "https://images.pexels.com/photos/1173777/pexels-photo-1173777.jpeg?auto=compress&cs=tinysrgb&fit=crop&h=627&w=1200",
        "tiny": "https://images.pexels.com/photos/1173777/pexels-photo-1173777.jpeg?auto=compress&cs=tinysrgb&dpr=1&fit=crop&h=200&w=280"
      },
      "liked": false,
      "alt": "Aerial View of Road in the Middle of Trees"
    }
  ],
  "total_results": 8000,
  "next_page": "https://api.pexels.com/v1/search/?page=2&per_page=15&query=forest"
}
